135
hematite slab (3x3x0.5 (ie. 7 layers)) optimized with the 3 lowermost layers frozen
Fe    5.0938794056000001E+00    1.1819686931600000E+01    3.8857999440000002E-01
Fe    7.6575796251000012E+00    7.3792284937000003E+00    3.8857999440000002E-01
Fe    1.0221279844600000E+01    2.9387700558000009E+00    3.8857999440000002E-01
Fe   -3.3520515799999998E-02    1.1819686931600000E+01    3.8857999440000002E-01
Fe    2.5301797037000009E+00    7.3792284937000003E+00    3.8857999440000002E-01
Fe    5.0938799232000003E+00    2.9387700558000009E+00    3.8857999440000002E-01
Fe   -5.1609204371999997E+00    1.1819686931600000E+01    3.8857999440000002E-01
Fe   -2.5972202177000008E+00    7.3792284937000003E+00    3.8857999440000002E-01
Fe   -3.3519998200000012E-02    2.9387700558000009E+00    3.8857999440000002E-01
O    8.4519195149000002E+00    8.9577468754999998E+00    1.1642700434000002E+00
O    1.1015619734400000E+01    4.5172884376000004E+00    1.1642700434000002E+00
O    1.3579319953900004E+01    7.6829999700000026E-02    1.1642700434000002E+00
O    3.3245195934999998E+00    8.9577468754999998E+00    1.1642700434000002E+00
O    5.8882198130000001E+00    4.5172884376000004E+00    1.1642700434000002E+00
O    8.4519200325000003E+00    7.6829999700000026E-02    1.1642700434000002E+00
O   -1.8028803279000001E+00    8.9577468754999998E+00    1.1642700434000002E+00
O    7.6081989160000019E-01    4.5172884376000004E+00    1.1642700434000002E+00
O    3.3245201111000009E+00    7.6829999700000026E-02    1.1642700434000002E+00
O    8.4568492958999997E+00    1.1718386930399999E+01    1.1650400162000001E+00
O    1.1020549515400001E+01    7.2779284925000018E+00    1.1650400162000001E+00
O    1.3584249734900000E+01    2.8374700545999998E+00    1.1650400162000001E+00
O    3.3294493744000002E+00    1.1718386930399999E+01    1.1650400162000001E+00
O    5.8931495939999996E+00    7.2779284925000018E+00    1.1650400162000001E+00
O    8.4568498134999999E+00    2.8374700545999998E+00    1.1650400162000001E+00
O   -1.7979505469999999E+00    1.1718386930399999E+01    1.1650400162000001E+00
O    7.6574967250000003E-01    7.2779284925000018E+00    1.1650400162000001E+00
O    3.3294498920000000E+00    2.8374700545999998E+00    1.1650400162000001E+00
O    6.0627194235000017E+00    1.0342536849000002E+01    1.1660399437000004E+00
O    8.6264196430000002E+00    5.9020784111000006E+00    1.1660399437000004E+00
O    1.1190119862600000E+01    1.4616199732000004E+00    1.1660399437000004E+00
O    9.3531950210000003E-01    1.0342536849000002E+01    1.1660399437000004E+00
O    3.4990197216000007E+00    5.9020784111000006E+00    1.1660399437000004E+00
O    6.0627199411000001E+00    1.4616199732000004E+00    1.1660399437000004E+00
O   -4.1920804192999999E+00    1.0342536849000002E+01    1.1660399437000004E+00
O   -1.6283801998000000E+00    5.9020784111000006E+00    1.1660399437000004E+00
O    9.3532001970000000E-01    1.4616199732000004E+00    1.1660399437000004E+00
Fe    7.6576695035000020E+00    1.3299716753000000E+01    1.9292099476000004E+00
Fe    1.0221369723000000E+01    8.8592583150999999E+00    1.9292099476000004E+00
Fe    1.2785069942500003E+01    4.4187998771999997E+00    1.9292099476000004E+00
Fe    2.5302695820000007E+00    1.3299716753000000E+01    1.9292099476000004E+00
Fe    5.0939698016000001E+00    8.8592583150999999E+00    1.9292099476000004E+00
Fe    7.6576700211000022E+00    4.4187998771999997E+00    1.9292099476000004E+00
Fe   -2.5971303394000000E+00    1.3299716753000000E+01    1.9292099476000004E+00
Fe   -3.3430119899999999E-02    8.8592583150999999E+00    1.9292099476000004E+00
Fe    2.5302700996000000E+00    4.4187998771999997E+00    1.9292099476000004E+00
Fe    7.6573893615999999E+00    1.0339216870300000E+01    2.7128999233000002E+00
Fe    1.0221089581099999E+01    5.8987584324000002E+00    2.7128999233000002E+00
Fe    1.2784789800600000E+01    1.4582999944999999E+00    2.7128999233000002E+00
Fe    2.5299894402000001E+00    1.0339216870300000E+01    2.7128999233000002E+00
Fe    5.0936896596999999E+00    5.8987584324000002E+00    2.7128999233000002E+00
Fe    7.6573898792000001E+00    1.4582999944999999E+00    2.7128999233000002E+00
Fe   -2.5974104811999998E+00    1.0339216870300000E+01    2.7128999233000002E+00
Fe   -3.3710261700000001E-02    5.8987584324000002E+00    2.7128999233000002E+00
Fe    2.5299899578000007E+00    1.4582999944999999E+00    2.7128999233000002E+00
O    4.1304756613965043E+00    1.3307463578947651E+01    3.5001167396883592E+00
O    6.6941769595753646E+00    8.8670223019267294E+00    3.5001767993255024E+00
O    9.2578528795177437E+00    4.4265510362385028E+00    3.5001288755311744E+00
O   -9.9692541958166536E-01    1.3307463461265664E+01    3.5001152179110533E+00
O    1.5667767321458053E+00    8.8670217908758424E+00    3.5001756062629417E+00
O    4.1304531832224214E+00    4.4265517679628577E+00    3.5001311685013774E+00
O   -6.1243251817186275E+00    1.3307461962490342E+01    3.5001131009979827E+00
O   -3.5606228089029996E+00    8.8670204599243405E+00    3.5001741702719875E+00
O   -9.9694637900391969E-01    4.4265509671478735E+00    3.5001296127432684E+00
O    6.8641324715133578E+00    1.1909754123250762E+01    3.5013407886194785E+00
O    9.4278295972244486E+00    7.4692813457494394E+00    3.5013867472256504E+00
O    1.1991525282616340E+01    3.0288366438439307E+00    3.5013330000739042E+00
O    1.7367335182912744E+00    1.1909754445658971E+01    3.5013406897855153E+00
O    4.3004309064159525E+00    7.4692827405332896E+00    3.5013863742402176E+00
O    6.8641257127758948E+00    3.0288361153197814E+00    3.5013351897172340E+00
O   -3.3906666839533162E+00    1.1909754656020796E+01    3.5013389896914671E+00
O   -8.2696924973819264E-01    7.4692822500252003E+00    3.5013860373525398E+00
O    1.7367258384650146E+00    3.0288364879656404E+00    3.5013335049621785E+00
O    9.4130519697150117E+00    1.0241764359401767E+01    3.5022475110281195E+00
O    1.1976720511937511E+01    5.8013145852638628E+00    3.5023038343029875E+00
O    1.4540453595471837E+01    1.3608574159390232E+00    3.5022501732474232E+00
O    4.2856504704904443E+00    1.0241764527159159E+01    3.5022508556928256E+00
O    6.8493186978853080E+00    5.8013141133626718E+00    3.5023069379157334E+00
O    9.4130536384835430E+00    1.3608572871133890E+00    3.5022498778276412E+00
O   -8.4174892720705874E-01    1.0241764884493509E+01    3.5022485275927946E+00
O    1.7219197998754250E+00    5.8013144967462162E+00    3.5023044837980959E+00
O    4.2856527285709509E+00    1.3608578491101018E+00    3.5022510103906783E+00
Fe    5.0941983849915484E+00    1.1819195348787122E+01    4.4755059255887817E+00
Fe    7.6578937896166632E+00    7.3787302569947961E+00    4.4756282872658089E+00
Fe    1.0221590859151934E+01    2.9382751680177104E+00    4.4755170061629803E+00
Fe   -3.3201832067377035E-02    1.1819195213727154E+01    4.4755004425625193E+00
Fe    2.5304941036461428E+00    7.3787300582496291E+00    4.4756242332226721E+00
Fe    5.0941904801708180E+00    2.9382748122853606E+00    4.4755206428115626E+00
Fe   -5.1606014612226341E+00    1.1819194410228562E+01    4.4754991998967695E+00
Fe   -2.5969056079435857E+00    7.3787294586435710E+00    4.4756231361118397E+00
Fe   -3.3209142972140421E-02    2.9382744965345475E+00    4.4755189875159047E+00
Fe    7.6583482852798337E+00    1.3299177820922866E+01    4.8236047556127488E+00
Fe    1.0222049862087021E+01    8.8587214751644421E+00    4.8236196811122101E+00
Fe    1.2785729030211366E+01    4.4182469624035772E+00    4.8236148140268220E+00
Fe    2.5309481517821246E+00    1.3299178757190415E+01    4.8236064419070495E+00
Fe    5.0946486677420024E+00    8.8587222137733921E+00    4.8236208158648699E+00
Fe    7.6583284470826376E+00    4.4182468146001117E+00    4.8236160504770398E+00
Fe   -2.5964533008849671E+00    1.3299178287687186E+01    4.8236060445866347E+00
Fe   -3.2751278042208107E-02    8.8587218835420547E+00    4.8236206997486253E+00
Fe    2.5309279509707334E+00    4.4182476147043994E+00    4.8236153220701574E+00
O    5.8648996166845837E+00    1.0391672928333277E+01    5.7243271730727487E+00
O    8.4285770588461215E+00    5.9511561542417724E+00    5.7243943867540583E+00
O    1.0992301973265532E+01    1.5107369982404066E+00    5.7243141531165751E+00
O    7.3749927525445458E-01    1.0391674237031864E+01    5.7243243179474907E+00
O    3.3011764815661793E+00    5.9511578967920551E+00    5.7243928537092144E+00
O    5.8649003660726864E+00    1.5107363219358956E+00    5.7243156988137125E+00
O   -4.3898990785685603E+00    1.0391675320500859E+01    5.7243208645557688E+00
O   -1.8262231839657648E+00    5.9511575129289493E+00    5.7243913700665576E+00
O    7.3750207793024769E-01    1.5107375180709159E+00    5.7243119000592015E+00
O    5.9461467977160787E+00    1.3199906965731733E+01    5.7253609484133676E+00
O    8.5098668282913454E+00    8.7594505926093174E+00    5.7254346087425256E+00
O    1.1073502840237397E+01    4.3189769547701689E+00    5.7253658774411216E+00
O    8.1874489174420839E-01    1.3199907188094164E+01    5.7253585533078617E+00
O    3.3824642015188959E+00    8.7594501086707428E+00    5.7254338695670590E+00
O    5.9461034614236814E+00    4.3189764493711733E+00    5.7253699471810497E+00
O   -4.3086575270566181E+00    1.3199906784057996E+01    5.7253564042237217E+00
O   -1.7449361682502416E+00    8.7594500243618327E+00    5.7254316517331825E+00
O    8.1870067067719998E-01    4.3189764964605803E+00    5.7253657024118390E+00
O    3.4732380980890381E+00    1.1865494578015893E+01    5.7265372878464715E+00
O    6.0369193635983089E+00    7.4250619135023763E+00    5.7266401522852943E+00
O    8.6006124992595669E+00    2.9845808970988519E+00    5.7265603739360467E+00
O   -1.6541626433202927E+00    1.1865494869056027E+01    5.7265348899510666E+00
O    9.0951868497226818E-01    7.4250623844431081E+00    5.7266387482469767E+00
O    3.4732104949646740E+00    2.9845835269430365E+00    5.7265626012408273E+00
O   -6.7815612626588093E+00    1.1865493049362128E+01    5.7265324164055302E+00
O   -4.2178802731423222E+00    7.4250615953436725E+00    5.7266369455783659E+00
O   -1.6541881324253043E+00    2.9845814064266811E+00    5.7265597232897312E+00
Fe    7.6585376157387719E+00    1.0339021788401373E+01    5.9657361628861265E+00
Fe    1.0222231799646037E+01    5.8985543719240825E+00    5.9657297946700609E+00
Fe    1.2785940875863952E+01    1.4580911309286000E+00    5.9657456591841909E+00
Fe    2.5311366848855577E+00    1.0339021905550098E+01    5.9657351826125113E+00
Fe    5.0948310108129009E+00    5.8985540679459012E+00    5.9657290443823205E+00
Fe    7.6585402979415846E+00    1.4580911456160599E+00    5.9657448278130429E+00
Fe   -2.5962628406474106E+00    1.0339021888325078E+01    5.9657362229209809E+00
Fe   -3.2569222602583554E-02    5.8985544892258188E+00    5.9657301784020422E+00
Fe    2.5311403046228431E+00    1.4580915099755178E+00    5.9657462788229365E+00
